Mem diff: 7209, Processor diff: 13.0, Time diff: 109
-------
Mem diff: 7864, Processor diff: 13.1, Time diff: 110
-------
Mem diff: 6553, Processor diff: 0.0, Time diff: 114
-------
Mem diff: 6554 B , Processor diff: 0.0 % , Time diff: 125 ms 
-------
Mem diff: 6555 B , Processor diff: 0.0 % , Time diff: 125 ms 
-------
Mem diff: 6554 B , Processor diff: 0.0 % , Time diff: 125 ms 
-------
Mem diff: 6554 B , Processor diff: 0.0 % , Time diff: 125 ms 
-------
Mem diff: 6554 KB , Processor diff: 0.0 % , Time diff: 141 ms 
-------
Mem diff: 6555 KB , Processor diff: 0.0 % , Time diff: 140 ms 
-------
Mem diff: 7865 KB , Processor diff: 15.9 % , Time diff: 125 ms 
-------
Mem diff: 6554 KB , Processor diff: 0.0 % , Time diff: 103 ms 
-------
